simulation/qsim/proje.msim.vcd
$comment
	File created using the following command:
		vcd file proje.msim.vcd -direction
$end
$date
	Sun Jul 03 02:25:14 2022
$end
$version
	ModelSim Version 10.1d
$end
$timescale
	1ps
$end
$scope module proje_vlg_vec_tst $end
$var reg 1 ! bin0 $end
$var reg 1 " bin1 $end
$var reg 1 # clk $end
$var reg 1 $ start $end
$var wire 1 % b $end
$var wire 1 & bf1 [17] $end
$var wire 1 ' bf1 [16] $end
$var wire 1 ( bf1 [15] $end
$var wire 1 ) bf1 [14] $end
$var wire 1 * bf1 [13] $end
$var wire 1 + bf1 [12] $end
$var wire 1 , bf1 [11] $end
$var wire 1 - bf1 [10] $end
$var wire 1 . bf1 [9] $end
$var wire 1 / bf1 [8] $end
$var wire 1 0 bf1 [7] $end
$var wire 1 1 bf1 [6] $end
$var wire 1 2 bf1 [5] $end
$var wire 1 3 bf1 [4] $end
$var wire 1 4 bf1 [3] $end
$var wire 1 5 bf1 [2] $end
$var wire 1 6 bf1 [1] $end
$var wire 1 7 bf1 [0] $end
$var wire 1 8 bf2 [17] $end
$var wire 1 9 bf2 [16] $end
$var wire 1 : bf2 [15] $end
$var wire 1 ; bf2 [14] $end
$var wire 1 < bf2 [13] $end
$var wire 1 = bf2 [12] $end
$var wire 1 > bf2 [11] $end
$var wire 1 ? bf2 [10] $end
$var wire 1 @ bf2 [9] $end
$var wire 1 A bf2 [8] $end
$var wire 1 B bf2 [7] $end
$var wire 1 C bf2 [6] $end
$var wire 1 D bf2 [5] $end
$var wire 1 E bf2 [4] $end
$var wire 1 F bf2 [3] $end
$var wire 1 G bf2 [2] $end
$var wire 1 H bf2 [1] $end
$var wire 1 I bf2 [0] $end
$var wire 1 J bf3 [17] $end
$var wire 1 K bf3 [16] $end
$var wire 1 L bf3 [15] $end
$var wire 1 M bf3 [14] $end
$var wire 1 N bf3 [13] $end
$var wire 1 O bf3 [12] $end
$var wire 1 P bf3 [11] $end
$var wire 1 Q bf3 [10] $end
$var wire 1 R bf3 [9] $end
$var wire 1 S bf3 [8] $end
$var wire 1 T bf3 [7] $end
$var wire 1 U bf3 [6] $end
$var wire 1 V bf3 [5] $end
$var wire 1 W bf3 [4] $end
$var wire 1 X bf3 [3] $end
$var wire 1 Y bf3 [2] $end
$var wire 1 Z bf3 [1] $end
$var wire 1 [ bf3 [0] $end
$var wire 1 \ bf4 [17] $end
$var wire 1 ] bf4 [16] $end
$var wire 1 ^ bf4 [15] $end
$var wire 1 _ bf4 [14] $end
$var wire 1 ` bf4 [13] $end
$var wire 1 a bf4 [12] $end
$var wire 1 b bf4 [11] $end
$var wire 1 c bf4 [10] $end
$var wire 1 d bf4 [9] $end
$var wire 1 e bf4 [8] $end
$var wire 1 f bf4 [7] $end
$var wire 1 g bf4 [6] $end
$var wire 1 h bf4 [5] $end
$var wire 1 i bf4 [4] $end
$var wire 1 j bf4 [3] $end
$var wire 1 k bf4 [2] $end
$var wire 1 l bf4 [1] $end
$var wire 1 m bf4 [0] $end
$var wire 1 n isitstart [1] $end
$var wire 1 o isitstart [0] $end
$var wire 1 p registeredbin [3] $end
$var wire 1 q registeredbin [2] $end
$var wire 1 r registeredbin [1] $end
$var wire 1 s registeredbin [0] $end
$var wire 1 t sampler $end
$scope module i1 $end
$var wire 1 u gnd $end
$var wire 1 v vcc $end
$var wire 1 w unknown $end
$var tri1 1 x devclrn $end
$var tri1 1 y devpor $end
$var tri1 1 z devoe $end
$var wire 1 { registeredbin[0]~output_o $end
$var wire 1 | registeredbin[1]~output_o $end
$var wire 1 } registeredbin[2]~output_o $end
$var wire 1 ~ registeredbin[3]~output_o $end
$var wire 1 !! bf1[0]~output_o $end
$var wire 1 "! bf1[1]~output_o $end
$var wire 1 #! bf1[2]~output_o $end
$var wire 1 $! bf1[3]~output_o $end
$var wire 1 %! bf1[4]~output_o $end
$var wire 1 &! bf1[5]~output_o $end
$var wire 1 '! bf1[6]~output_o $end
$var wire 1 (! bf1[7]~output_o $end
$var wire 1 )! bf1[8]~output_o $end
$var wire 1 *! bf1[9]~output_o $end
$var wire 1 +! bf1[10]~output_o $end
$var wire 1 ,! bf1[11]~output_o $end
$var wire 1 -! bf1[12]~output_o $end
$var wire 1 .! bf1[13]~output_o $end
$var wire 1 /! bf1[14]~output_o $end
$var wire 1 0! bf1[15]~output_o $end
$var wire 1 1! bf1[16]~output_o $end
$var wire 1 2! bf1[17]~output_o $end
$var wire 1 3! bf2[0]~output_o $end
$var wire 1 4! bf2[1]~output_o $end
$var wire 1 5! bf2[2]~output_o $end
$var wire 1 6! bf2[3]~output_o $end
$var wire 1 7! bf2[4]~output_o $end
$var wire 1 8! bf2[5]~output_o $end
$var wire 1 9! bf2[6]~output_o $end
$var wire 1 :! bf2[7]~output_o $end
$var wire 1 ;! bf2[8]~output_o $end
$var wire 1 <! bf2[9]~output_o $end
$var wire 1 =! bf2[10]~output_o $end
$var wire 1 >! bf2[11]~output_o $end
$var wire 1 ?! bf2[12]~output_o $end
$var wire 1 @! bf2[13]~output_o $end
$var wire 1 A! bf2[14]~output_o $end
$var wire 1 B! bf2[15]~output_o $end
$var wire 1 C! bf2[16]~output_o $end
$var wire 1 D! bf2[17]~output_o $end
$var wire 1 E! bf3[0]~output_o $end
$var wire 1 F! bf3[1]~output_o $end
$var wire 1 G! bf3[2]~output_o $end
$var wire 1 H! bf3[3]~output_o $end
$var wire 1 I! bf3[4]~output_o $end
$var wire 1 J! bf3[5]~output_o $end
$var wire 1 K! bf3[6]~output_o $end
$var wire 1 L! bf3[7]~output_o $end
$var wire 1 M! bf3[8]~output_o $end
$var wire 1 N! bf3[9]~output_o $end
$var wire 1 O! bf3[10]~output_o $end
$var wire 1 P! bf3[11]~output_o $end
$var wire 1 Q! bf3[12]~output_o $end
$var wire 1 R! bf3[13]~output_o $end
$var wire 1 S! bf3[14]~output_o $end
$var wire 1 T! bf3[15]~output_o $end
$var wire 1 U! bf3[16]~output_o $end
$var wire 1 V! bf3[17]~output_o $end
$var wire 1 W! bf4[0]~output_o $end
$var wire 1 X! bf4[1]~output_o $end
$var wire 1 Y! bf4[2]~output_o $end
$var wire 1 Z! bf4[3]~output_o $end
$var wire 1 [! bf4[4]~output_o $end
$var wire 1 \! bf4[5]~output_o $end
$var wire 1 ]! bf4[6]~output_o $end
$var wire 1 ^! bf4[7]~output_o $end
$var wire 1 _! bf4[8]~output_o $end
$var wire 1 `! bf4[9]~output_o $end
$var wire 1 a! bf4[10]~output_o $end
$var wire 1 b! bf4[11]~output_o $end
$var wire 1 c! bf4[12]~output_o $end
$var wire 1 d! bf4[13]~output_o $end
$var wire 1 e! bf4[14]~output_o $end
$var wire 1 f! bf4[15]~output_o $end
$var wire 1 g! bf4[16]~output_o $end
$var wire 1 h! bf4[17]~output_o $end
$var wire 1 i! isitstart[0]~output_o $end
$var wire 1 j! isitstart[1]~output_o $end
$var wire 1 k! b~output_o $end
$var wire 1 l! clk~input_o $end
$var wire 1 m! bin1~input_o $end
$var wire 1 n! fourcyc[0]~1_combout $end
$var wire 1 o! bin0~input_o $end
$var wire 1 p! cnt~0_combout $end
$var wire 1 q! cnt~q $end
$var wire 1 r! start~input_o $end
$var wire 1 s! Equal0~0_combout $end
$var wire 1 t! fourcyc[1]~0_combout $end
$var wire 1 u! isitstart[0]~0_combout $end
$var wire 1 v! isitstart[1]~2_combout $end
$var wire 1 w! isitstart[1]~reg0_q $end
$var wire 1 x! isitstart[0]~1_combout $end
$var wire 1 y! isitstart[0]~reg0_q $end
$var wire 1 z! dummy[3]~0_combout $end
$var wire 1 {! Mux10~0_combout $end
$var wire 1 |! registeredbin[0]~0_combout $end
$var wire 1 }! registeredbin[0]~reg0_q $end
$var wire 1 ~! Mux9~0_combout $end
$var wire 1 !" registeredbin[1]~reg0_q $end
$var wire 1 "" Mux8~0_combout $end
$var wire 1 #" registeredbin[2]~reg0_q $end
$var wire 1 $" Mux7~0_combout $end
$var wire 1 %" registeredbin[3]~reg0_q $end
$var wire 1 &" b~0_combout $end
$var wire 1 '" b~reg0_q $end
$var wire 1 (" bf1[0]~0_combout $end
$var wire 1 )" Equal3~0_combout $end
$var wire 1 *" bf1[0]~reg0_q $end
$var wire 1 +" bf1[1]~1_combout $end
$var wire 1 ," bf1[1]~reg0_q $end
$var wire 1 -" bf1[2]~reg0_q $end
$var wire 1 ." bf1[3]~reg0_q $end
$var wire 1 /" bf1[4]~reg0_q $end
$var wire 1 0" bf1[5]~reg0_q $end
$var wire 1 1" bf1[6]~reg0_q $end
$var wire 1 2" bf1[7]~reg0_q $end
$var wire 1 3" bf1[8]~reg0_q $end
$var wire 1 4" bf1[9]~reg0_q $end
$var wire 1 5" bf1[10]~reg0_q $end
$var wire 1 6" bf1[11]~reg0_q $end
$var wire 1 7" bf1[12]~reg0_q $end
$var wire 1 8" bf1[13]~reg0_q $end
$var wire 1 9" bf1[14]~reg0_q $end
$var wire 1 :" bf1[15]~reg0_q $end
$var wire 1 ;" bf1[16]~reg0_q $end
$var wire 1 <" bf1[17]~reg0_q $end
$var wire 1 =" bf2[0]~0_combout $end
$var wire 1 >" Equal4~0_combout $end
$var wire 1 ?" bf2[0]~reg0_q $end
$var wire 1 @" bf2[1]~1_combout $end
$var wire 1 A" bf2[1]~reg0_q $end
$var wire 1 B" bf2[2]~reg0_q $end
$var wire 1 C" bf2[3]~reg0_q $end
$var wire 1 D" bf2[4]~reg0_q $end
$var wire 1 E" bf2[5]~reg0_q $end
$var wire 1 F" bf2[6]~reg0_q $end
$var wire 1 G" bf2[7]~reg0_q $end
$var wire 1 H" bf2[8]~reg0_q $end
$var wire 1 I" bf2[9]~reg0_q $end
$var wire 1 J" bf2[10]~reg0_q $end
$var wire 1 K" bf2[11]~reg0_q $end
$var wire 1 L" bf2[12]~reg0_q $end
$var wire 1 M" bf2[13]~reg0_q $end
$var wire 1 N" bf2[14]~reg0_q $end
$var wire 1 O" bf2[15]~reg0_q $end
$var wire 1 P" bf2[16]~reg0_q $end
$var wire 1 Q" bf2[17]~reg0_q $end
$var wire 1 R" fourcyc [1] $end
$var wire 1 S" fourcyc [0] $end
$var wire 1 T" dummy [3] $end
$var wire 1 U" dummy [2] $end
$var wire 1 V" dummy [1] $end
$var wire 1 W" dummy [0] $end
$upscope $end
$upscope $end
$enddefinitions $end
#0
$dumpvars
1!
1"
0#
1$
1%
17
16
15
14
13
12
11
10
1/
1.
1-
1,
1+
1*
1)
1(
1'
1&
1I
1H
1G
1F
1E
1D
1C
1B
1A
1@
1?
1>
1=
1<
1;
1:
19
18
1[
1Z
1Y
1X
1W
1V
1U
1T
1S
1R
1Q
1P
1O
1N
1M
1L
1K
1J
1m
1l
1k
1j
1i
1h
1g
1f
1e
1d
1c
1b
1a
1`
1_
1^
1]
1\
0o
0n
0s
0r
0q
0p
xt
0u
1v
xw
1x
1y
1z
0{
0|
0}
0~
1!!
1"!
1#!
1$!
1%!
1&!
1'!
1(!
1)!
1*!
1+!
1,!
1-!
1.!
1/!
10!
11!
12!
13!
14!
15!
16!
17!
18!
19!
1:!
1;!
1<!
1=!
1>!
1?!
1@!
1A!
1B!
1C!
1D!
1E!
1F!
1G!
1H!
1I!
1J!
1K!
1L!
1M!
1N!
1O!
1P!
1Q!
1R!
1S!
1T!
1U!
1V!
1W!
1X!
1Y!
1Z!
1[!
1\!
1]!
1^!
1_!
1`!
1a!
1b!
1c!
1d!
1e!
1f!
1g!
1h!
0i!
0j!
1k!
0l!
1m!
1n!
1o!
0p!
0q!
1r!
0s!
0t!
0u!
0v!
0w!
0x!
0y!
0z!
0{!
0|!
0}!
0~!
0!"
0""
0#"
0$"
0%"
0&"
0'"
1("
1)"
0*"
1+"
0,"
0-"
0."
0/"
00"
01"
02"
03"
04"
05"
06"
07"
08"
09"
0:"
0;"
0<"
1="
0>"
0?"
1@"
0A"
0B"
0C"
0D"
0E"
0F"
0G"
0H"
0I"
0J"
0K"
0L"
0M"
0N"
0O"
0P"
0Q"
0S"
0R"
0W"
0V"
0U"
0T"
$end
#500
1#
1l!
0t
#1000
0#
0l!
1t
#1500
1#
1l!
0t
#2000
0#
0l!
1t
#2500
1#
1l!
0t
#3000
0#
0l!
1t
#3500
1#
1l!
0t
#4000
0#
0l!
1t
#4500
1#
1l!
0t
#5000
0#
0l!
1t
#5500
1#
1l!
0t
#6000
0#
0l!
1t
#6500
1#
1l!
0t
#7000
0#
0l!
1t
#7500
1#
1l!
0t
#8000
0#
0l!
1t
#8500
1#
1l!
0t
#9000
0#
0l!
1t
#9500
1#
1l!
0t
#10000
0#
0l!
1t
#10500
1#
1l!
0t
#11000
0#
0l!
1t
#11500
1#
1l!
0t
#12000
0#
0l!
1t
#12500
1#
1l!
0t
#13000
0#
0l!
1t
#13500
1#
1l!
0t
#14000
0#
0l!
1t
#14500
1#
1l!
0t
#15000
0#
0l!
1t
#15500
1#
1l!
0t
#16000
0#
0l!
1t
#16500
1#
1l!
0t
#17000
0#
0l!
1t
#17500
1#
1l!
0t
#18000
0#
0l!
1t
#18500
1#
1l!
0t
#19000
0#
0l!
1t
#19500
1#
1l!
0t
#20000
0#
0l!
1t
#20500
1#
1l!
0t
#21000
0#
0l!
1t
#21500
1#
1l!
0t
#22000
0#
0l!
1t
#22500
1#
1l!
0t
#23000
0#
0l!
1t
#23500
1#
1l!
0t
#24000
0#
0l!
1t
#24500
1#
1l!
0t
#25000
0#
0l!
1t
#25500
1#
1l!
0t
#26000
0#
0l!
1t
#26500
1#
1l!
0t
#27000
0#
0l!
1t
#27500
1#
1l!
0t
#28000
0#
0l!
1t
#28500
1#
1l!
0t
#29000
0#
0l!
1t
#29500
1#
1l!
0t
#30000
0#
0l!
1t
#30500
1#
1l!
0t
#31000
0#
0l!
1t
#31500
1#
1l!
0t
#32000
0#
0l!
1t
#32500
1#
1l!
0t
#33000
0#
0l!
1t
#33500
1#
1l!
0t
#34000
0#
0l!
1t
#34500
1#
1l!
0t
#35000
0#
0l!
1t
#35500
1#
1l!
0t
#36000
0#
0l!
1t
#36500
1#
1l!
0t
#37000
0#
0l!
1t
#37500
1#
1l!
0t
#38000
0#
0l!
1t
#38500
1#
1l!
0t
#39000
0#
0l!
1t
#39500
1#
1l!
0t
#40000
0#
0l!
1t
#40500
1#
1l!
0t
#41000
0#
0l!
1t
#41500
1#
1l!
0t
#42000
0#
0l!
1t
#42500
1#
1l!
0t
#43000
0#
0l!
1t
#43500
1#
1l!
0t
#44000
0#
0l!
1t
#44500
1#
1l!
0t
#45000
0#
0l!
1t
#45500
1#
1l!
0t
#46000
0#
0l!
1t
#46500
1#
1l!
0t
#47000
0#
0l!
1t
#47500
1#
1l!
0t
#48000
0#
0l!
1t
#48500
1#
1l!
0t
#49000
0#
0l!
1t
#49500
1#
1l!
0t
#50000
0#
0l!
1t
#50500
1#
1l!
0t
#51000
0#
0l!
1t
#51500
1#
1l!
0t
#52000
0#
0l!
1t
#52500
1#
1l!
0t
#53000
0#
0l!
1t
#53500
1#
1l!
0t
#54000
0#
0l!
1t
#54500
1#
1l!
0t
#55000
0#
0l!
1t
#55500
1#
1l!
0t
#56000
0#
0l!
1t
#56500
1#
1l!
0t
#57000
0#
0l!
1t
#57500
1#
1l!
0t
#58000
0#
0l!
1t
#58500
1#
1l!
0t
#59000
0#
0l!
1t
#59500
1#
1l!
0t
#60000
0#
0l!
1t
#60500
1#
1l!
0t
#61000
0#
0l!
1t
#61500
1#
1l!
0t
#62000
0#
0l!
1t
#62500
1#
1l!
0t
#63000
0#
0l!
1t
#63500
1#
1l!
0t
#64000
0#
0l!
1t
#64500
1#
1l!
0t
#65000
0#
0l!
1t
#65500
1#
1l!
0t
#66000
0#
0l!
1t
#66500
1#
1l!
0t
#67000
0#
0l!
1t
#67500
1#
1l!
0t
#68000
0#
0l!
1t
#68500
1#
1l!
0t
#69000
0#
0l!
1t
#69500
1#
1l!
0t
#70000
0#
0l!
1t
#70500
1#
1l!
0t
#71000
0#
0l!
1t
#71500
1#
1l!
0t
#72000
0#
0l!
1t
#72500
1#
1l!
0t
#73000
0#
0l!
1t
#73500
1#
1l!
0t
#74000
0#
0l!
1t
#74500
1#
1l!
0t
#75000
0#
0l!
1t
#75500
1#
1l!
0t
#76000
0#
0l!
1t
#76500
1#
1l!
0t
#77000
0#
0l!
1t
#77500
1#
1l!
0t
#78000
0#
0l!
1t
#78500
1#
1l!
0t
#79000
0#
0l!
1t
#79500
1#
1l!
0t
#80000
0$
0#
0r!
0l!
1t
1x!
#80500
1#
1l!
0t
1y!
1v!
0x!
1i!
1o
#81000
0#
0l!
1t
#81500
1#
1l!
0t
0y!
1w!
1x!
0i!
1j!
0o
1n
#82000
0#
0l!
1t
#82500
1#
1l!
0t
1y!
1s!
1&"
1i!
1o
#83000
0#
0l!
1t
#83500
1#
1l!
0t
1'"
0k!
0%
#84000
0#
0l!
1t
#84500
1#
1l!
0t
#85000
0#
0l!
1t
#85500
1#
1l!
0t
#86000
0#
0l!
1t
#86500
1#
1l!
0t
#87000
0#
0l!
1t
#87500
1#
1l!
0t
#88000
0#
0l!
1t
#88500
1#
1l!
0t
#89000
0#
0l!
1t
#89500
1#
1l!
0t
#90000
1$
0#
1r!
0l!
1t
#90500
1#
1l!
0t
#91000
0#
0l!
1t
#91500
1#
1l!
0t
#92000
0#
0l!
1t
#92500
1#
1l!
0t
#93000
0#
0l!
1t
#93500
1#
1l!
0t
#94000
0#
0l!
1t
#94500
1#
1l!
0t
#95000
0#
0l!
1t
#95500
1#
1l!
0t
#96000
0#
0l!
1t
#96500
1#
1l!
0t
#97000
0#
0l!
1t
#97500
1#
1l!
0t
#98000
0#
0l!
1t
#98500
1#
1l!
0t
#99000
0#
0l!
1t
#99500
1#
1l!
0t
#100000
0!
0#
0o!
0l!
1t
1p!
1z!
#100500
1#
1l!
0t
1S"
1q!
0n!
0z!
#101000
0#
0l!
1t
#101500
1#
1l!
0t
#102000
0#
0l!
1t
#102500
1#
1l!
0t
#103000
0#
0l!
1t
#103500
1#
1l!
0t
#104000
0#
0l!
1t
#104500
1#
1l!
0t
#105000
0#
0l!
1t
#105500
1#
1l!
0t
#106000
0#
0l!
1t
#106500
1#
1l!
0t
#107000
0#
0l!
1t
#107500
1#
1l!
0t
#108000
0#
0l!
1t
#108500
1#
1l!
0t
#109000
0#
0l!
1t
#109500
1#
1l!
0t
#110000
0#
0l!
1t
#110500
1#
1l!
0t
#111000
0#
0l!
1t
#111500
1#
1l!
0t
#112000
0#
0l!
1t
#112500
1#
1l!
0t
#113000
0#
0l!
1t
#113500
1#
1l!
0t
#114000
0#
0l!
1t
#114500
1#
1l!
0t
#115000
0#
0l!
1t
#115500
1#
1l!
0t
#116000
0#
0l!
1t
#116500
1#
1l!
0t
#117000
0#
0l!
1t
#117500
1#
1l!
0t
#118000
0#
0l!
1t
#118500
1#
1l!
0t
#119000
0#
0l!
1t
#119500
1#
1l!
0t
#120000
1!
0#
1o!
0l!
1t
0p!
#120500
1#
1l!
0t
0q!
#121000
0#
0l!
1t
#121500
1#
1l!
0t
#122000
0#
0l!
1t
#122500
1#
1l!
0t
#123000
0#
0l!
1t
#123500
1#
1l!
0t
#124000
0#
0l!
1t
#124500
1#
1l!
0t
#125000
0#
0l!
1t
#125500
1#
1l!
0t
#126000
0#
0l!
1t
#126500
1#
1l!
0t
#127000
0#
0l!
1t
#127500
1#
1l!
0t
#128000
0#
0l!
1t
#128500
1#
1l!
0t
#129000
0#
0l!
1t
#129500
1#
1l!
0t
#130000
0!
0#
0o!
0l!
1t
1p!
1t!
1z!
#130500
1#
1l!
0t
0S"
1R"
1q!
1n!
0z!
#131000
0#
0l!
1t
#131500
1#
1l!
0t
#132000
0#
0l!
1t
#132500
1#
1l!
0t
#133000
0#
0l!
1t
#133500
1#
1l!
0t
#134000
0#
0l!
1t
#134500
1#
1l!
0t
#135000
0#
0l!
1t
#135500
1#
1l!
0t
#136000
0#
0l!
1t
#136500
1#
1l!
0t
#137000
0#
0l!
1t
#137500
1#
1l!
0t
#138000
0#
0l!
1t
#138500
1#
1l!
0t
#139000
0#
0l!
1t
#139500
1#
1l!
0t
#140000
1!
0#
1o!
0l!
1t
0p!
#140500
1#
1l!
0t
0q!
#141000
0#
0l!
1t
#141500
1#
1l!
0t
#142000
0#
0l!
1t
#142500
1#
1l!
0t
#143000
0#
0l!
1t
#143500
1#
1l!
0t
#144000
0#
0l!
1t
#144500
1#
1l!
0t
#145000
0#
0l!
1t
#145500
1#
1l!
0t
#146000
0#
0l!
1t
#146500
1#
1l!
0t
#147000
0#
0l!
1t
#147500
1#
1l!
0t
#148000
0#
0l!
1t
#148500
1#
1l!
0t
#149000
0#
0l!
1t
#149500
1#
1l!
0t
#150000
0#
0l!
1t
#150500
1#
1l!
0t
#151000
0#
0l!
1t
#151500
1#
1l!
0t
#152000
0#
0l!
1t
#152500
1#
1l!
0t
#153000
0#
0l!
1t
#153500
1#
1l!
0t
#154000
0#
0l!
1t
#154500
1#
1l!
0t
#155000
0#
0l!
1t
#155500
1#
1l!
0t
#156000
0#
0l!
1t
#156500
1#
1l!
0t
#157000
0#
0l!
1t
#157500
1#
1l!
0t
#158000
0#
0l!
1t
#158500
1#
1l!
0t
#159000
0#
0l!
1t
#159500
1#
1l!
0t
#160000
0"
0#
0m!
0l!
1t
1p!
1z!
1~!
#160500
1#
1l!
0t
1U"
1S"
1q!
0n!
1u!
1{!
0z!
#161000
0#
0l!
1t
#161500
1#
1l!
0t
#162000
0#
0l!
1t
#162500
1#
1l!
0t
#163000
0#
0l!
1t
#163500
1#
1l!
0t
#164000
0#
0l!
1t
#164500
1#
1l!
0t
#165000
0#
0l!
1t
#165500
1#
1l!
0t
#166000
0#
0l!
1t
#166500
1#
1l!
0t
#167000
0#
0l!
1t
#167500
1#
1l!
0t
#168000
0#
0l!
1t
#168500
1#
1l!
0t
#169000
0#
0l!
1t
#169500
1#
1l!
0t
#170000
1"
0#
1m!
0l!
1t
0p!
0u!
0{!
#170500
1#
1l!
0t
0q!
#171000
0#
0l!
1t
#171500
1#
1l!
0t
#172000
0#
0l!
1t
#172500
1#
1l!
0t
#173000
0#
0l!
1t
#173500
1#
1l!
0t
#174000
0#
0l!
1t
#174500
1#
1l!
0t
#175000
0#
0l!
1t
#175500
1#
1l!
0t
#176000
0#
0l!
1t
#176500
1#
1l!
0t
#177000
0#
0l!
1t
#177500
1#
1l!
0t
#178000
0#
0l!
1t
#178500
1#
1l!
0t
#179000
0#
0l!
1t
#179500
1#
1l!
0t
#180000
0!
0#
0o!
0l!
1t
1p!
0t!
1u!
1z!
1|!
0v!
0x!
#180500
1#
1l!
0t
0S"
0R"
1q!
1!"
0y!
0w!
1n!
0u!
0|!
0z!
0+"
0@"
0s!
0&"
1|
0i!
0j!
1r
0o
0n
#181000
0#
0l!
1t
#181500
1#
1l!
0t
0'"
1k!
1%
1*"
1-"
0!!
0#!
07
05
#182000
0#
0l!
1t
#182500
1#
1l!
0t
#183000
0#
0l!
1t
#183500
1#
1l!
0t
#184000
0#
0l!
1t
#184500
1#
1l!
0t
#185000
0#
0l!
1t
#185500
1#
1l!
0t
#186000
0#
0l!
1t
#186500
1#
1l!
0t
#187000
0#
0l!
1t
#187500
1#
1l!
0t
#188000
0#
0l!
1t
#188500
1#
1l!
0t
#189000
0#
0l!
1t
#189500
1#
1l!
0t
#190000
1!
0#
1o!
0l!
1t
#190500
1#
1l!
0t
#191000
0#
0l!
1t
#191500
1#
1l!
0t
#192000
0#
0l!
1t
#192500
1#
1l!
0t
#193000
0#
0l!
1t
#193500
1#
1l!
0t
#194000
0#
0l!
1t
#194500
1#
1l!
0t
#195000
0#
0l!
1t
#195500
1#
1l!
0t
#196000
0#
0l!
1t
#196500
1#
1l!
0t
#197000
0#
0l!
1t
#197500
1#
1l!
0t
#198000
0#
0l!
1t
#198500
1#
1l!
0t
#199000
0#
0l!
1t
#199500
1#
1l!
0t
#200000
0#
0l!
1t
#200500
1#
1l!
0t
#201000
0#
0l!
1t
#201500
1#
1l!
0t
#202000
0#
0l!
1t
#202500
1#
1l!
0t
#203000
0#
0l!
1t
#203500
1#
1l!
0t
#204000
0#
0l!
1t
#204500
1#
1l!
0t
#205000
0#
0l!
1t
#205500
1#
1l!
0t
#206000
0#
0l!
1t
#206500
1#
1l!
0t
#207000
0#
0l!
1t
#207500
1#
1l!
0t
#208000
0#
0l!
1t
#208500
1#
1l!
0t
#209000
0#
0l!
1t
#209500
1#
1l!
0t
#210000
0#
0l!
1t
#210500
1#
1l!
0t
#211000
0#
0l!
1t
#211500
1#
1l!
0t
#212000
0#
0l!
1t
#212500
1#
1l!
0t
#213000
0#
0l!
1t
#213500
1#
1l!
0t
#214000
0#
0l!
1t
#214500
1#
1l!
0t
#215000
0#
0l!
1t
#215500
1#
1l!
0t
#216000
0#
0l!
1t
#216500
1#
1l!
0t
#217000
0#
0l!
1t
#217500
1#
1l!
0t
#218000
0#
0l!
1t
#218500
1#
1l!
0t
#219000
0#
0l!
1t
#219500
1#
1l!
0t
#220000
0$
0#
0r!
0l!
1t
1x!
#220500
1#
1l!
0t
1y!
1v!
0x!
1i!
1o
#221000
0#
0l!
1t
#221500
1#
1l!
0t
0y!
1w!
1x!
0i!
1j!
0o
1n
#222000
0#
0l!
1t
#222500
1#
1l!
0t
1y!
0p!
1s!
1&"
1i!
1o
#223000
0#
0l!
1t
#223500
1#
1l!
0t
1'"
0q!
0k!
0%
#224000
0#
0l!
1t
#224500
1#
1l!
0t
#225000
0#
0l!
1t
#225500
1#
1l!
0t
#226000
0#
0l!
1t
#226500
1#
1l!
0t
#227000
0#
0l!
1t
#227500
1#
1l!
0t
#228000
0#
0l!
1t
#228500
1#
1l!
0t
#229000
0#
0l!
1t
#229500
1#
1l!
0t
#230000
1$
0#
1r!
0l!
1t
#230500
1#
1l!
0t
#231000
0#
0l!
1t
#231500
1#
1l!
0t
#232000
0#
0l!
1t
#232500
1#
1l!
0t
#233000
0#
0l!
1t
#233500
1#
1l!
0t
#234000
0#
0l!
1t
#234500
1#
1l!
0t
#235000
0#
0l!
1t
#235500
1#
1l!
0t
#236000
0#
0l!
1t
#236500
1#
1l!
0t
#237000
0#
0l!
1t
#237500
1#
1l!
0t
#238000
0#
0l!
1t
#238500
1#
1l!
0t
#239000
0#
0l!
1t
#239500
1#
1l!
0t
#240000
0!
0#
0o!
0l!
1t
1p!
1z!
#240500
1#
1l!
0t
1S"
1q!
0n!
0z!
#241000
0#
0l!
1t
#241500
1#
1l!
0t
#242000
0#
0l!
1t
#242500
1#
1l!
0t
#243000
0#
0l!
1t
#243500
1#
1l!
0t
#244000
0#
0l!
1t
#244500
1#
1l!
0t
#245000
0#
0l!
1t
#245500
1#
1l!
0t
#246000
0#
0l!
1t
#246500
1#
1l!
0t
#247000
0#
0l!
1t
#247500
1#
1l!
0t
#248000
0#
0l!
1t
#248500
1#
1l!
0t
#249000
0#
0l!
1t
#249500
1#
1l!
0t
#250000
1!
0#
1o!
0l!
1t
0p!
#250500
1#
1l!
0t
0q!
#251000
0#
0l!
1t
#251500
1#
1l!
0t
#252000
0#
0l!
1t
#252500
1#
1l!
0t
#253000
0#
0l!
1t
#253500
1#
1l!
0t
#254000
0#
0l!
1t
#254500
1#
1l!
0t
#255000
0#
0l!
1t
#255500
1#
1l!
0t
#256000
0#
0l!
1t
#256500
1#
1l!
0t
#257000
0#
0l!
1t
#257500
1#
1l!
0t
#258000
0#
0l!
1t
#258500
1#
1l!
0t
#259000
0#
0l!
1t
#259500
1#
1l!
0t
#260000
0#
0l!
1t
#260500
1#
1l!
0t
#261000
0#
0l!
1t
#261500
1#
1l!
0t
#262000
0#
0l!
1t
#262500
1#
1l!
0t
#263000
0#
0l!
1t
#263500
1#
1l!
0t
#264000
0#
0l!
1t
#264500
1#
1l!
0t
#265000
0#
0l!
1t
#265500
1#
1l!
0t
#266000
0#
0l!
1t
#266500
1#
1l!
0t
#267000
0#
0l!
1t
#267500
1#
1l!
0t
#268000
0#
0l!
1t
#268500
1#
1l!
0t
#269000
0#
0l!
1t
#269500
1#
1l!
0t
#270000
0!
0#
0o!
0l!
1t
1p!
1t!
1z!
#270500
1#
1l!
0t
0S"
1R"
1q!
1n!
0~!
0z!
#271000
0#
0l!
1t
#271500
1#
1l!
0t
#272000
0#
0l!
1t
#272500
1#
1l!
0t
#273000
0#
0l!
1t
#273500
1#
1l!
0t
#274000
0#
0l!
1t
#274500
1#
1l!
0t
#275000
0#
0l!
1t
#275500
1#
1l!
0t
#276000
0#
0l!
1t
#276500
1#
1l!
0t
#277000
0#
0l!
1t
#277500
1#
1l!
0t
#278000
0#
0l!
1t
#278500
1#
1l!
0t
#279000
0#
0l!
1t
#279500
1#
1l!
0t
#280000
1!
0#
1o!
0l!
1t
0p!
#280500
1#
1l!
0t
0q!
#281000
0#
0l!
1t
#281500
1#
1l!
0t
#282000
0#
0l!
1t
#282500
1#
1l!
0t
#283000
0#
0l!
1t
#283500
1#
1l!
0t
#284000
0#
0l!
1t
#284500
1#
1l!
0t
#285000
0#
0l!
1t
#285500
1#
1l!
0t
#286000
0#
0l!
1t
#286500
1#
1l!
0t
#287000
0#
0l!
1t
#287500
1#
1l!
0t
#288000
0#
0l!
1t
#288500
1#
1l!
0t
#289000
0#
0l!
1t
#289500
1#
1l!
0t
#290000
0#
0l!
1t
#290500
1#
1l!
0t
#291000
0#
0l!
1t
#291500
1#
1l!
0t
#292000
0#
0l!
1t
#292500
1#
1l!
0t
#293000
0#
0l!
1t
#293500
1#
1l!
0t
#294000
0#
0l!
1t
#294500
1#
1l!
0t
#295000
0#
0l!
1t
#295500
1#
1l!
0t
#296000
0#
0l!
1t
#296500
1#
1l!
0t
